﻿{
  "local": {
    "base-url": "localhost:44349",
    "client-id": "c9d354b7-ba8b-4768-bafd-ce6dcce8dcb9",
    "tenant-id": "fc6a7adc-53de-44ad-88fc-af783bbb1d6e",
    "scope": "fa7ac9a4-7d62-4eb4-915f-19bd815e7eaa/.default",
    "client-secret": "<set-in-current-value>"
  },
  "dev": {
    "base-url": "aperture.dev.purple.tech",
    "client-id": "c9d354b7-ba8b-4768-bafd-ce6dcce8dcb9",
    "tenant-id": "fc6a7adc-53de-44ad-88fc-af783bbb1d6e",
    "scope": "fa7ac9a4-7d62-4eb4-915f-19bd815e7eaa/.default",
    "client-secret": "<set-in-current-value>"
  },
  "uat": {
    "base-url": "aperture.uat.purple.tech",
    "client-id": "ef4948dd-a98f-4b3a-93e3-d3193ee48c02",
    "tenant-id": "fc6a7adc-53de-44ad-88fc-af783bbb1d6e",
    "scope": "99b5e22e-afc1-4526-8ceb-8ccfe67fd690/.default",
    "client-secret": "<set-in-current-value>"
  }
}
